…
flights %>% select(sched_dep_time_new,sched_arr_time_new,dep_time_new,arr_time_new)
```

    ## # A tibble: 336,776 x 4
    ##    sched_dep_time_new  sched_arr_time_new  dep_time_new       
    ##    <dttm>              <dttm>              <dttm>             
    ##  1 2013-01-01 05:15:00 2013-01-01 08:19:00 2013-01-01 05:17:00
    ##  2 2013-01-01 05:29:00 2013-01-01 08:30:00 2013-01-01 05:33:00
    ##  3 2013-01-01 05:40:00 2013-01-01 08:50:00 2013-01-01 05:42:00
    ##  4 2013-01-01 05:45:00 2013-01-01 10:22:00 2013-01-01 05:44:00
    ##  5 2013-01-01 06:00:00 2013-01-01 08:37:00 2013-01-01 05:54:00
    ##  6 2013-01-01 05:58:00 2013-01-01 07:28:00 2013-01-01 05:54:00
    ##  7 2013-01-01 06:00:00 2013-01-01 08:54:00 2013-01-01 05:55:00
    ##  8 2013-01-01 06:00:00 2013-01-01 07:23:00 2013-01-01 05:57:00
    ##  9 2013-01-01 06:00:00 2013-01-01 08:46:00 2013-01-01 05:57:00
    ## 10 2013-01-01 06:00:00 2013-01-01 07:45:00 2013-01-01 05:58:00
    ## # ... with 336,766 more rows, and 1 more variable: arr_time_new <dttm>

## 2. Encuentre el delay total que existe en cada vuelo.

El delay total se puede encontrar sumando el delay de la salida y el
delay de la entrada.

``` r
flights$Total_Delay <- flights$dep_delay + flights$arr_delay
flights %>% select(origin,dest,Total_Delay)
```

    ## # A tibble: 336,776 x 3
    ##    origin dest  Total_Delay
    ##    <chr>  <chr>       <dbl>
    ##  1 EWR    IAH            13
    ##  2 LGA    IAH            24
    ##  3 JFK    MIA            35
    ##  4 JFK    BQN           -19
    ##  5 LGA    ATL           -31
    ##  6 EWR    ORD             8
    ##  7 EWR    FLL            14
    ##  8 LGA    IAD           -17
    ##  9 JFK    MCO           -11
    ## 10 LGA    ORD             6
    ## # ... with 336,766 more rows
